<?xml version="1.0" encoding="UTF-8" standalone="no"?>
<!-- Created with Inkscape (http://www.inkscape.org/) -->

<svg
   width="100"
   height="100"
   viewBox="0 0 26.458333 26.458333"
   version="1.1"
   id="svg5"
   inkscape:version="1.2.2 (b0a8486541, 2022-12-01)"
   sodipodi:docname="logo.svg"
   inkscape:export-filename="logo.png"
   inkscape:export-xdpi="96"
   inkscape:export-ydpi="96"
   xmlns:inkscape="http://www.inkscape.org/namespaces/inkscape"
   xmlns:sodipodi="http://sodipodi.sourceforge.net/DTD/sodipodi-0.dtd"
   xmlns="http://www.w3.org/2000/svg"
   xmlns:svg="http://www.w3.org/2000/svg">
  <sodipodi:namedview
     id="namedview7"
     pagecolor="#ffffff"
     bordercolor="#999999"
     borderopacity="1"
     inkscape:showpageshadow="0"
     inkscape:pageopacity="0"
     inkscape:pagecheckerboard="0"
     inkscape:deskcolor="#d1d1d1"
     inkscape:document-units="px"
     showgrid="true"
     inkscape:zoom="3.805582"
     inkscape:cx="-3.6788066"
     inkscape:cy="37.444996"
     inkscape:window-width="1920"
     inkscape:window-height="1052"
     inkscape:window-x="0"
     inkscape:window-y="0"
     inkscape:window-maximized="1"
     inkscape:current-layer="layer1">
    <inkscape:grid
       type="xygrid"
       id="grid7350"
       originx="0"
       originy="0" />
  </sodipodi:namedview>
  <defs
     id="defs2" />
  <g
     inkscape:groupmode="layer"
     id="layer1">
    <path
       sodipodi:type="star"
       style="fill:#16502d;stroke-width:0.396875;stroke-opacity:0.20068"
       id="path13297"
       inkscape:flatsided="false"
       sodipodi:sides="3"
       sodipodi:cx="67.136925"
       sodipodi:cy="150.16174"
       sodipodi:r1="2.4734259"
       sodipodi:r2="1.2367131"
       sodipodi:arg1="0.72506878"
       sodipodi:arg2="1.7722663"
       inkscape:rounded="0"
       inkscape:randomized="0"
       d="m 68.98817,151.80209 -2.098724,-0.42865 -2.098723,-0.42864 1.420579,-1.60323 1.42058,-1.60322 0.678144,2.03187 z"
       inkscape:transform-center-x="-0.36058127"
       inkscape:transform-center-y="-0.79881194"
       transform="matrix(2.4236005,-0.49702913,0.49702913,2.4236005,-221.97504,-319.68073)" />
    <path
       sodipodi:type="star"
       style="fill:#37c871;stroke-width:0.396875;stroke-opacity:0.20068"
       id="path13289"
       inkscape:flatsided="false"
       sodipodi:sides="3"
       sodipodi:cx="67.136925"
       sodipodi:cy="150.16174"
       sodipodi:r1="2.4734259"
       sodipodi:r2="1.2367131"
       sodipodi:arg1="0.72506878"
       sodipodi:arg2="1.7722663"
       inkscape:rounded="0"
       inkscape:randomized="0"
       d="m 68.98817,151.80209 -2.098724,-0.42865 -2.098723,-0.42864 1.420579,-1.60323 1.42058,-1.60322 0.678144,2.03187 z"
       inkscape:transform-center-x="-0.45072994"
       inkscape:transform-center-y="-0.99850891"
       transform="matrix(3.0295007,-0.62128642,0.62128642,3.0295007,-283.47371,-392.33472)" />
    <path
       sodipodi:type="star"
       style="fill:#5fd38d;stroke-width:0.396875;stroke-opacity:0.20068"
       id="path13291"
       inkscape:flatsided="false"
       sodipodi:sides="3"
       sodipodi:cx="67.136925"
       sodipodi:cy="150.16174"
       sodipodi:r1="2.4734259"
       sodipodi:r2="1.2367131"
       sodipodi:arg1="0.72506878"
       sodipodi:arg2="1.7722663"
       inkscape:rounded="0"
       inkscape:randomized="0"
       d="m 68.98817,151.80209 -2.098724,-0.42865 -2.098723,-0.42864 1.420579,-1.60323 1.42058,-1.60322 0.678144,2.03187 z"
       inkscape:transform-center-x="0.45073983"
       inkscape:transform-center-y="0.99850678"
       transform="matrix(-3.0295007,0.62128642,-0.62128642,-3.0295007,316.52182,430.25231)" />
    <path
       sodipodi:type="star"
       style="fill:#2ca05a;stroke-width:0.396875;stroke-opacity:0.20068"
       id="path13293"
       inkscape:flatsided="false"
       sodipodi:sides="3"
       sodipodi:cx="67.136925"
       sodipodi:cy="150.16174"
       sodipodi:r1="2.4734259"
       sodipodi:r2="1.2367131"
       sodipodi:arg1="0.72506878"
       sodipodi:arg2="1.7722663"
       inkscape:rounded="0"
       inkscape:randomized="0"
       d="m 68.98817,151.80209 -2.098724,-0.42865 -2.098723,-0.42864 1.420579,-1.60323 1.42058,-1.60322 0.678144,2.03187 z"
       inkscape:transform-center-x="0.4507377"
       inkscape:transform-center-y="0.99850814"
       transform="matrix(-3.0295007,0.62128642,-0.62128642,-3.0295007,303.31228,430.26028)" />
    <path
       sodipodi:type="star"
       style="fill:#217844;stroke-width:0.396875;stroke-opacity:0.20068"
       id="path13295"
       inkscape:flatsided="false"
       sodipodi:sides="3"
       sodipodi:cx="67.136925"
       sodipodi:cy="150.16174"
       sodipodi:r1="2.4734259"
       sodipodi:r2="1.2367131"
       sodipodi:arg1="0.72506878"
       sodipodi:arg2="1.7722663"
       inkscape:rounded="0"
       inkscape:randomized="0"
       d="m 68.98817,151.80209 -2.098724,-0.42865 -2.098723,-0.42864 1.420579,-1.60323 1.42058,-1.60322 0.678144,2.03187 z"
       inkscape:transform-center-x="-0.45072886"
       inkscape:transform-center-y="-0.99851092"
       transform="matrix(3.0295007,-0.62128642,0.62128642,3.0295007,-289.98498,-403.80194)" />
  </g>
</svg>
